[
  {
    "site": "http://www.debreczipanzio.ro",
    "checkText": "<title>Debreczi Panzio</title>",
    "paths": [
      {
        "link": "http://www.debreczipanzio.ro/galeria/"
      },
      {
        "link": "http://www.debreczipanzio.ro/szolgaltatasok/a-tabor/"
      },
      {
        "link": "http://www.debreczipanzio.ro/szolgaltatasok/a-panzio/"
      },
      {
        "link": "http://www.debreczipanzio.ro/szolgaltatasok/latnivalok/"
      }
    ]
  }
]